^E:\YEAR 4\YEAR 4 SEMESTER 1\C++ 3\ASSIGNMENTS\CA2 -- SINGLE PLAYER GAME\PROJECTS\PHASE 4\CA2\CA2\DEBUG\ACTOR.OBJ|E:\YEAR 4\YEAR 4 SEMESTER 1\C++ 3\ASSIGNMENTS\CA2 -- SINGLE PLAYER GAME\PROJECTS\PHASE 4\CA2\CA2\DEBUG\ARMOUR.OBJ|E:\YEAR 4\YEAR 4 SEMESTER 1\C++ 3\ASSIGNMENTS\CA2 -- SINGLE PLAYER GAME\PROJECTS\PHASE 4\CA2\CA2\DEBUG\BASICLIBRANDOM.OBJ|E:\YEAR 4\YEAR 4 SEMESTER 1\C++ 3\ASSIGNMENTS\CA2 -- SINGLE PLAYER GAME\PROJECTS\PHASE 4\CA2\CA2\DEBUG\BASICLIBSTRING.OBJ|E:\YEAR 4\YEAR 4 SEMESTER 1\C++ 3\ASSIGNMENTS\CA2 -- SINGLE PLAYER GAME\PROJECTS\PHASE 4\CA2\CA2\DEBUG\BASICLIBTIME.OBJ|E:\YEAR 4\YEAR 4 SEMESTER 1\C++ 3\ASSIGNMENTS\CA2 -- SINGLE PLAYER GAME\PROJECTS\PHASE 4\CA2\CA2\DEBUG\CHARACTERSETUP.OBJ|E:\YEAR 4\YEAR 4 SEMESTER 1\C++ 3\ASSIGNMENTS\CA2 -- SINGLE PLAYER GAME\PROJECTS\PHASE 4\CA2\CA2\DEBUG\DATABASEPOINTER.OBJ|E:\YEAR 4\YEAR 4 SEMESTER 1\C++ 3\ASSIGNMENTS\CA2 -- SINGLE PLAYER GAME\PROJECTS\PHASE 4\CA2\CA2\DEBUG\DATASTORE.OBJ|E:\YEAR 4\YEAR 4 SEMESTER 1\C++ 3\ASSIGNMENTS\CA2 -- SINGLE PLAYER GAME\PROJECTS\PHASE 4\CA2\CA2\DEBUG\ENEMY.OBJ|E:\YEAR 4\YEAR 4 SEMESTER 1\C++ 3\ASSIGNMENTS\CA2 -- SINGLE PLAYER GAME\PROJECTS\PHASE 4\CA2\CA2\DEBUG\ENEMYBRAIN.OBJ|E:\YEAR 4\YEAR 4 SEMESTER 1\C++ 3\ASSIGNMENTS\CA2 -- SINGLE PLAYER GAME\PROJECTS\PHASE 4\CA2\CA2\DEBUG\EVENTMANAGER.OBJ|E:\YEAR 4\YEAR 4 SEMESTER 1\C++ 3\ASSIGNMENTS\CA2 -- SINGLE PLAYER GAME\PROJECTS\PHASE 4\CA2\CA2\DEBUG\GAME.OBJ|E:\YEAR 4\YEAR 4 SEMESTER 1\C++ 3\ASSIGNMENTS\CA2 -- SINGLE PLAYER GAME\PROJECTS\PHASE 4\CA2\CA2\DEBUG\GAMEDATA.OBJ|E:\YEAR 4\YEAR 4 SEMESTER 1\C++ 3\ASSIGNMENTS\CA2 -- SINGLE PLAYER GAME\PROJECTS\PHASE 4\CA2\CA2\DEBUG\GAMEMAP.OBJ|E:\YEAR 4\YEAR 4 SEMESTER 1\C++ 3\ASSIGNMENTS\CA2 -- SINGLE PLAYER GAME\PROJECTS\PHASE 4\CA2\CA2\DEBUG\GAMESERVER.OBJ|E:\YEAR 4\YEAR 4 SEMESTER 1\C++ 3\ASSIGNMENTS\CA2 -- SINGLE PLAYER GAME\PROJECTS\PHASE 4\CA2\CA2\DEBUG\ITEM.OBJ|E:\YEAR 4\YEAR 4 SEMESTER 1\C++ 3\ASSIGNMENTS\CA2 -- SINGLE PLAYER GAME\PROJECTS\PHASE 4\CA2\CA2\DEBUG\LOGGEDIN.OBJ|E:\YEAR 4\YEAR 4 SEMESTER 1\C++ 3\ASSIGNMENTS\CA2 -- SINGLE PLAYER GAME\PROJECTS\PHASE 4\CA2\CA2\DEBUG\LOGIN.OBJ|E:\YEAR 4\YEAR 4 SEMESTER 1\C++ 3\ASSIGNMENTS\CA2 -- SINGLE PLAYER GAME\PROJECTS\PHASE 4\CA2\CA2\DEBUG\LOGON.OBJ|E:\YEAR 4\YEAR 4 SEMESTER 1\C++ 3\ASSIGNMENTS\CA2 -- SINGLE PLAYER GAME\PROJECTS\PHASE 4\CA2\CA2\DEBUG\MAGICEQUIPMENT.OBJ|E:\YEAR 4\YEAR 4 SEMESTER 1\C++ 3\ASSIGNMENTS\CA2 -- SINGLE PLAYER GAME\PROJECTS\PHASE 4\CA2\CA2\DEBUG\MAGICITEM.OBJ|E:\YEAR 4\YEAR 4 SEMESTER 1\C++ 3\ASSIGNMENTS\CA2 -- SINGLE PLAYER GAME\PROJECTS\PHASE 4\CA2\CA2\DEBUG\MAIN.OBJ|E:\YEAR 4\YEAR 4 SEMESTER 1\C++ 3\ASSIGNMENTS\CA2 -- SINGLE PLAYER GAME\PROJECTS\PHASE 4\CA2\CA2\DEBUG\MESSAGES.OBJ|E:\YEAR 4\YEAR 4 SEMESTER 1\C++ 3\ASSIGNMENTS\CA2 -- SINGLE PLAYER GAME\PROJECTS\PHASE 4\CA2\CA2\DEBUG\PARSER.OBJ|E:\YEAR 4\YEAR 4 SEMESTER 1\C++ 3\ASSIGNMENTS\CA2 -- SINGLE PLAYER GAME\PROJECTS\PHASE 4\CA2\CA2\DEBUG\PLAYER.OBJ|E:\YEAR 4\YEAR 4 SEMESTER 1\C++ 3\ASSIGNMENTS\CA2 -- SINGLE PLAYER GAME\PROJECTS\PHASE 4\CA2\CA2\DEBUG\PLAYERDATABASE.OBJ|E:\YEAR 4\YEAR 4 SEMESTER 1\C++ 3\ASSIGNMENTS\CA2 -- SINGLE PLAYER GAME\PROJECTS\PHASE 4\CA2\CA2\DEBUG\ROOM.OBJ|E:\YEAR 4\YEAR 4 SEMESTER 1\C++ 3\ASSIGNMENTS\CA2 -- SINGLE PLAYER GAME\PROJECTS\PHASE 4\CA2\CA2\DEBUG\SIMPLEMUDLOGS.OBJ|E:\YEAR 4\YEAR 4 SEMESTER 1\C++ 3\ASSIGNMENTS\CA2 -- SINGLE PLAYER GAME\PROJECTS\PHASE 4\CA2\CA2\DEBUG\SOCKETLIBERRORS.OBJ|E:\YEAR 4\YEAR 4 SEMESTER 1\C++ 3\ASSIGNMENTS\CA2 -- SINGLE PLAYER GAME\PROJECTS\PHASE 4\CA2\CA2\DEBUG\SOCKETLIBSOCKET.OBJ|E:\YEAR 4\YEAR 4 SEMESTER 1\C++ 3\ASSIGNMENTS\CA2 -- SINGLE PLAYER GAME\PROJECTS\PHASE 4\CA2\CA2\DEBUG\SOCKETLIBSYSTEM.OBJ|E:\YEAR 4\YEAR 4 SEMESTER 1\C++ 3\ASSIGNMENTS\CA2 -- SINGLE PLAYER GAME\PROJECTS\PHASE 4\CA2\CA2\DEBUG\SOCKETSET.OBJ|E:\YEAR 4\YEAR 4 SEMESTER 1\C++ 3\ASSIGNMENTS\CA2 -- SINGLE PLAYER GAME\PROJECTS\PHASE 4\CA2\CA2\DEBUG\TELNET.OBJ|E:\YEAR 4\YEAR 4 SEMESTER 1\C++ 3\ASSIGNMENTS\CA2 -- SINGLE PLAYER GAME\PROJECTS\PHASE 4\CA2\CA2\DEBUG\THREADLIBFUNCTIONS.OBJ|E:\YEAR 4\YEAR 4 SEMESTER 1\C++ 3\ASSIGNMENTS\CA2 -- SINGLE PLAYER GAME\PROJECTS\PHASE 4\CA2\CA2\DEBUG\TIMER.OBJ|E:\YEAR 4\YEAR 4 SEMESTER 1\C++ 3\ASSIGNMENTS\CA2 -- SINGLE PLAYER GAME\PROJECTS\PHASE 4\CA2\CA2\DEBUG\WIELDABLEITEM.OBJ
C:\PROGRAM FILES (X86)\WINDOWS KITS\8.0\LIB\WIN8\UM\X86\WS2_32.LIB
C:\PROGRAM FILES (X86)\WINDOWS KITS\8.0\LIB\WIN8\UM\X86\KERNEL32.LIB
C:\PROGRAM FILES (X86)\WINDOWS KITS\8.0\LIB\WIN8\UM\X86\USER32.LIB
C:\PROGRAM FILES (X86)\WINDOWS KITS\8.0\LIB\WIN8\UM\X86\GDI32.LIB
C:\PROGRAM FILES (X86)\WINDOWS KITS\8.0\LIB\WIN8\UM\X86\WINSPOOL.LIB
C:\PROGRAM FILES (X86)\WINDOWS KITS\8.0\LIB\WIN8\UM\X86\COMDLG32.LIB
C:\PROGRAM FILES (X86)\WINDOWS KITS\8.0\LIB\WIN8\UM\X86\ADVAPI32.LIB
C:\PROGRAM FILES (X86)\WINDOWS KITS\8.0\LIB\WIN8\UM\X86\SHELL32.LIB
C:\PROGRAM FILES (X86)\WINDOWS KITS\8.0\LIB\WIN8\UM\X86\OLE32.LIB
C:\PROGRAM FILES (X86)\WINDOWS KITS\8.0\LIB\WIN8\UM\X86\OLEAUT32.LIB
C:\PROGRAM FILES (X86)\WINDOWS KITS\8.0\LIB\WIN8\UM\X86\UUID.LIB
C:\PROGRAM FILES (X86)\WINDOWS KITS\8.0\LIB\WIN8\UM\X86\ODBC32.LIB
C:\PROGRAM FILES (X86)\WINDOWS KITS\8.0\LIB\WIN8\UM\X86\ODBCCP32.LIB
E:\YEAR 4\YEAR 4 SEMESTER 1\C++ 3\ASSIGNMENTS\CA2 -- SINGLE PLAYER GAME\PROJECTS\PHASE 4\CA2\CA2\DEBUG\BASICLIBRANDOM.OBJ
E:\YEAR 4\YEAR 4 SEMESTER 1\C++ 3\ASSIGNMENTS\CA2 -- SINGLE PLAYER GAME\PROJECTS\PHASE 4\CA2\CA2\DEBUG\BASICLIBSTRING.OBJ
E:\YEAR 4\YEAR 4 SEMESTER 1\C++ 3\ASSIGNMENTS\CA2 -- SINGLE PLAYER GAME\PROJECTS\PHASE 4\CA2\CA2\DEBUG\BASICLIBTIME.OBJ
E:\YEAR 4\YEAR 4 SEMESTER 1\C++ 3\ASSIGNMENTS\CA2 -- SINGLE PLAYER GAME\PROJECTS\PHASE 4\CA2\CA2\DEBUG\ACTOR.OBJ
E:\YEAR 4\YEAR 4 SEMESTER 1\C++ 3\ASSIGNMENTS\CA2 -- SINGLE PLAYER GAME\PROJECTS\PHASE 4\CA2\CA2\DEBUG\ARMOUR.OBJ
E:\YEAR 4\YEAR 4 SEMESTER 1\C++ 3\ASSIGNMENTS\CA2 -- SINGLE PLAYER GAME\PROJECTS\PHASE 4\CA2\CA2\DEBUG\CHARACTERSETUP.OBJ
E:\YEAR 4\YEAR 4 SEMESTER 1\C++ 3\ASSIGNMENTS\CA2 -- SINGLE PLAYER GAME\PROJECTS\PHASE 4\CA2\CA2\DEBUG\ENEMY.OBJ
E:\YEAR 4\YEAR 4 SEMESTER 1\C++ 3\ASSIGNMENTS\CA2 -- SINGLE PLAYER GAME\PROJECTS\PHASE 4\CA2\CA2\DEBUG\ENEMYBRAIN.OBJ
E:\YEAR 4\YEAR 4 SEMESTER 1\C++ 3\ASSIGNMENTS\CA2 -- SINGLE PLAYER GAME\PROJECTS\PHASE 4\CA2\CA2\DEBUG\GAMEDATA.OBJ
E:\YEAR 4\YEAR 4 SEMESTER 1\C++ 3\ASSIGNMENTS\CA2 -- SINGLE PLAYER GAME\PROJECTS\PHASE 4\CA2\CA2\DEBUG\GAMESERVER.OBJ
E:\YEAR 4\YEAR 4 SEMESTER 1\C++ 3\ASSIGNMENTS\CA2 -- SINGLE PLAYER GAME\PROJECTS\PHASE 4\CA2\CA2\DEBUG\ITEM.OBJ
E:\YEAR 4\YEAR 4 SEMESTER 1\C++ 3\ASSIGNMENTS\CA2 -- SINGLE PLAYER GAME\PROJECTS\PHASE 4\CA2\CA2\DEBUG\LOGGEDIN.OBJ
E:\YEAR 4\YEAR 4 SEMESTER 1\C++ 3\ASSIGNMENTS\CA2 -- SINGLE PLAYER GAME\PROJECTS\PHASE 4\CA2\CA2\DEBUG\LOGIN.OBJ
E:\YEAR 4\YEAR 4 SEMESTER 1\C++ 3\ASSIGNMENTS\CA2 -- SINGLE PLAYER GAME\PROJECTS\PHASE 4\CA2\CA2\DEBUG\MAGICEQUIPMENT.OBJ
E:\YEAR 4\YEAR 4 SEMESTER 1\C++ 3\ASSIGNMENTS\CA2 -- SINGLE PLAYER GAME\PROJECTS\PHASE 4\CA2\CA2\DEBUG\MAGICITEM.OBJ
E:\YEAR 4\YEAR 4 SEMESTER 1\C++ 3\ASSIGNMENTS\CA2 -- SINGLE PLAYER GAME\PROJECTS\PHASE 4\CA2\CA2\DEBUG\GAMEMAP.OBJ
E:\YEAR 4\YEAR 4 SEMESTER 1\C++ 3\ASSIGNMENTS\CA2 -- SINGLE PLAYER GAME\PROJECTS\PHASE 4\CA2\CA2\DEBUG\MESSAGES.OBJ
E:\YEAR 4\YEAR 4 SEMESTER 1\C++ 3\ASSIGNMENTS\CA2 -- SINGLE PLAYER GAME\PROJECTS\PHASE 4\CA2\CA2\DEBUG\PARSER.OBJ
E:\YEAR 4\YEAR 4 SEMESTER 1\C++ 3\ASSIGNMENTS\CA2 -- SINGLE PLAYER GAME\PROJECTS\PHASE 4\CA2\CA2\DEBUG\ROOM.OBJ
E:\YEAR 4\YEAR 4 SEMESTER 1\C++ 3\ASSIGNMENTS\CA2 -- SINGLE PLAYER GAME\PROJECTS\PHASE 4\CA2\CA2\DEBUG\DATASTORE.OBJ
E:\YEAR 4\YEAR 4 SEMESTER 1\C++ 3\ASSIGNMENTS\CA2 -- SINGLE PLAYER GAME\PROJECTS\PHASE 4\CA2\CA2\DEBUG\EVENTMANAGER.OBJ
E:\YEAR 4\YEAR 4 SEMESTER 1\C++ 3\ASSIGNMENTS\CA2 -- SINGLE PLAYER GAME\PROJECTS\PHASE 4\CA2\CA2\DEBUG\TIMER.OBJ
E:\YEAR 4\YEAR 4 SEMESTER 1\C++ 3\ASSIGNMENTS\CA2 -- SINGLE PLAYER GAME\PROJECTS\PHASE 4\CA2\CA2\DEBUG\WIELDABLEITEM.OBJ
E:\YEAR 4\YEAR 4 SEMESTER 1\C++ 3\ASSIGNMENTS\CA2 -- SINGLE PLAYER GAME\PROJECTS\PHASE 4\CA2\CA2\DEBUG\MAIN.OBJ
E:\YEAR 4\YEAR 4 SEMESTER 1\C++ 3\ASSIGNMENTS\CA2 -- SINGLE PLAYER GAME\PROJECTS\PHASE 4\CA2\CA2\DEBUG\DATABASEPOINTER.OBJ
E:\YEAR 4\YEAR 4 SEMESTER 1\C++ 3\ASSIGNMENTS\CA2 -- SINGLE PLAYER GAME\PROJECTS\PHASE 4\CA2\CA2\DEBUG\GAME.OBJ
E:\YEAR 4\YEAR 4 SEMESTER 1\C++ 3\ASSIGNMENTS\CA2 -- SINGLE PLAYER GAME\PROJECTS\PHASE 4\CA2\CA2\DEBUG\LOGON.OBJ
E:\YEAR 4\YEAR 4 SEMESTER 1\C++ 3\ASSIGNMENTS\CA2 -- SINGLE PLAYER GAME\PROJECTS\PHASE 4\CA2\CA2\DEBUG\PLAYER.OBJ
E:\YEAR 4\YEAR 4 SEMESTER 1\C++ 3\ASSIGNMENTS\CA2 -- SINGLE PLAYER GAME\PROJECTS\PHASE 4\CA2\CA2\DEBUG\PLAYERDATABASE.OBJ
E:\YEAR 4\YEAR 4 SEMESTER 1\C++ 3\ASSIGNMENTS\CA2 -- SINGLE PLAYER GAME\PROJECTS\PHASE 4\CA2\CA2\DEBUG\SIMPLEMUDLOGS.OBJ
E:\YEAR 4\YEAR 4 SEMESTER 1\C++ 3\ASSIGNMENTS\CA2 -- SINGLE PLAYER GAME\PROJECTS\PHASE 4\CA2\CA2\DEBUG\SOCKETLIBERRORS.OBJ
E:\YEAR 4\YEAR 4 SEMESTER 1\C++ 3\ASSIGNMENTS\CA2 -- SINGLE PLAYER GAME\PROJECTS\PHASE 4\CA2\CA2\DEBUG\SOCKETLIBSOCKET.OBJ
E:\YEAR 4\YEAR 4 SEMESTER 1\C++ 3\ASSIGNMENTS\CA2 -- SINGLE PLAYER GAME\PROJECTS\PHASE 4\CA2\CA2\DEBUG\SOCKETLIBSYSTEM.OBJ
E:\YEAR 4\YEAR 4 SEMESTER 1\C++ 3\ASSIGNMENTS\CA2 -- SINGLE PLAYER GAME\PROJECTS\PHASE 4\CA2\CA2\DEBUG\SOCKETSET.OBJ
E:\YEAR 4\YEAR 4 SEMESTER 1\C++ 3\ASSIGNMENTS\CA2 -- SINGLE PLAYER GAME\PROJECTS\PHASE 4\CA2\CA2\DEBUG\TELNET.OBJ
E:\YEAR 4\YEAR 4 SEMESTER 1\C++ 3\ASSIGNMENTS\CA2 -- SINGLE PLAYER GAME\PROJECTS\PHASE 4\CA2\CA2\DEBUG\THREADLIBFUNCTIONS.OBJ
C:\WINDOWS\SYSTEM32\TZRES.DLL
C:\WINDOWS\GLOBALIZATION\SORTING\SORTDEFAULT.NLS
C:\PROGRAM FILES (X86)\MICROSOFT VISUAL STUDIO 11.0\VC\LIB\MSVCPRTD.LIB
C:\PROGRAM FILES (X86)\MICROSOFT VISUAL STUDIO 11.0\VC\LIB\MSVCRTD.LIB
C:\PROGRAM FILES (X86)\MICROSOFT VISUAL STUDIO 11.0\VC\LIB\OLDNAMES.LIB
